…
## `select()` (8 min)

1. Make a data frame containing the columns `year`, `lifeExp`, `country` from the gapminder data, in that order.


```r
select(gapminder, year, lifeExp, country)
```

```
## # A tibble: 1,704 x 3
##     year lifeExp country    
##    <int>   <dbl> <fct>      
##  1  1952    28.8 Afghanistan
##  2  1957    30.3 Afghanistan
##  3  1962    32.0 Afghanistan
##  4  1967    34.0 Afghanistan
##  5  1972    36.1 Afghanistan
##  6  1977    38.4 Afghanistan
##  7  1982    39.9 Afghanistan
##  8  1987    40.8 Afghanistan
##  9  1992    41.7 Afghanistan
## 10  1997    41.8 Afghanistan
## # ... with 1,694 more rows
```


2. Select all variables, from `country` to `lifeExp`.


```r
# This will work:
select(gapminder, country, continent, year, lifeExp)
```

```
## # A tibble: 1,704 x 4
##    country     continent  year lifeExp
##    <fct>       <fct>     <int>   <dbl>
##  1 Afghanistan Asia       1952    28.8
##  2 Afghanistan Asia       1957    30.3
##  3 Afghanistan Asia       1962    32.0
##  4 Afghanistan Asia       1967    34.0
##  5 Afghanistan Asia       1972    36.1
##  6 Afghanistan Asia       1977    38.4
##  7 Afghanistan Asia       1982    39.9
##  8 Afghanistan Asia       1987    40.8
##  9 Afghanistan Asia       1992    41.7
## 10 Afghanistan Asia       1997    41.8
## # ... with 1,694 more rows
```

```r
# Better way:
select(gapminder, country:lifeExp)
```

```
## # A tibble: 1,704 x 4
##    country     continent  year lifeExp
##    <fct>       <fct>     <int>   <dbl>
##  1 Afghanistan Asia       1952    28.8
##  2 Afghanistan Asia       1957    30.3
##  3 Afghanistan Asia       1962    32.0
##  4 Afghanistan Asia       1967    34.0
##  5 Afghanistan Asia       1972    36.1
##  6 Afghanistan Asia       1977    38.4
##  7 Afghanistan Asia       1982    39.9
##  8 Afghanistan Asia       1987    40.8
##  9 Afghanistan Asia       1992    41.7
## 10 Afghanistan Asia       1997    41.8
## # ... with 1,694 more rows
```


3. Select all variables, except `lifeExp`.


```r
select(gapminder, -lifeExp)
```

```
## # A tibble: 1,704 x 5
##    country     continent  year      pop gdpPercap
##    <fct>       <fct>     <int>    <int>     <dbl>
##  1 Afghanistan Asia       1952  8425333      779.
##  2 Afghanistan Asia       1957  9240934      821.
##  3 Afghanistan Asia       1962 10267083      853.
##  4 Afghanistan Asia       1967 11537966      836.
##  5 Afghanistan Asia       1972 13079460      740.
##  6 Afghanistan Asia       1977 14880372      786.
##  7 Afghanistan Asia       1982 12881816      978.
##  8 Afghanistan Asia       1987 13867957      852.
##  9 Afghanistan Asia       1992 16317921      649.
## 10 Afghanistan Asia       1997 22227415      635.
## # ... with 1,694 more rows
```

4. Put `continent` first. Hint: use the `everything()` function.


```r
select(gapminder, continent, everything())
```

```
## # A tibble: 1,704 x 6
##    continent country      year lifeExp      pop gdpPercap
##    <fct>     <fct>       <int>   <dbl>    <int>     <dbl>
##  1 Asia      Afghanistan  1952    28.8  8425333      779.
##  2 Asia      Afghanistan  1957    30.3  9240934      821.
##  3 Asia      Afghanistan  1962    32.0 10267083      853.
##  4 Asia      Afghanistan  1967    34.0 11537966      836.
##  5 Asia      Afghanistan  1972    36.1 13079460      740.
##  6 Asia      Afghanistan  1977    38.4 14880372      786.
##  7 Asia      Afghanistan  1982    39.9 12881816      978.
##  8 Asia      Afghanistan  1987    40.8 13867957      852.
##  9 Asia      Afghanistan  1992    41.7 16317921      649.
## 10 Asia      Afghanistan  1997    41.8 22227415      635.
## # ... with 1,694 more rows
```


5. Rename `continent` to `cont`.


```r
# compare
select(gapminder, cont=continent, everything())
```

```
## # A tibble: 1,704 x 6
##    cont  country      year lifeExp      pop gdpPercap
##    <fct> <fct>       <int>   <dbl>    <int>     <dbl>
##  1 Asia  Afghanistan  1952    28.8  8425333      779.
##  2 Asia  Afghanistan  1957    30.3  9240934      821.
##  3 Asia  Afghanistan  1962    32.0 10267083      853.
##  4 Asia  Afghanistan  1967    34.0 11537966      836.
##  5 Asia  Afghanistan  1972    36.1 13079460      740.
##  6 Asia  Afghanistan  1977    38.4 14880372      786.
##  7 Asia  Afghanistan  1982    39.9 12881816      978.
##  8 Asia  Afghanistan  1987    40.8 13867957      852.
##  9 Asia  Afghanistan  1992    41.7 16317921      649.
## 10 Asia  Afghanistan  1997    41.8 22227415      635.
## # ... with 1,694 more rows
```

```r
#extra note: select cont then everything else in reverse order
#select(gapminder, cont=continent, gdpPercap:country)

rename(gapminder, cont=continent)
```

```
## # A tibble: 1,704 x 6
##    country     cont   year lifeExp      pop gdpPercap
##    <fct>       <fct> <int>   <dbl>    <int>     <dbl>
##  1 Afghanistan Asia   1952    28.8  8425333      779.
##  2 Afghanistan Asia   1957    30.3  9240934      821.
##  3 Afghanistan Asia   1962    32.0 10267083      853.
##  4 Afghanistan Asia   1967    34.0 11537966      836.
##  5 Afghanistan Asia   1972    36.1 13079460      740.
##  6 Afghanistan Asia   1977    38.4 14880372      786.
##  7 Afghanistan Asia   1982    39.9 12881816      978.
##  8 Afghanistan Asia   1987    40.8 13867957      852.
##  9 Afghanistan Asia   1992    41.7 16317921      649.
## 10 Afghanistan Asia   1997    41.8 22227415      635.
## # ... with 1,694 more rows
```


## `arrange()` (8 min)

1. Order by year.


```r
arrange(gapminder, year)
```

```
## # A tibble: 1,704 x 6
##    country     continent  year lifeExp      pop gdpPercap
##    <fct>       <fct>     <int>   <dbl>    <int>     <dbl>
##  1 Afghanistan Asia       1952    28.8  8425333      779.
##  2 Albania     Europe     1952    55.2  1282697     1601.
##  3 Algeria     Africa     1952    43.1  9279525     2449.
##  4 Angola      Africa     1952    30.0  4232095     3521.
##  5 Argentina   Americas   1952    62.5 17876956     5911.
##  6 Australia   Oceania    1952    69.1  8691212    10040.
##  7 Austria     Europe     1952    66.8  6927772     6137.
##  8 Bahrain     Asia       1952    50.9   120447     9867.
##  9 Bangladesh  Asia       1952    37.5 46886859      684.
## 10 Belgium     Europe     1952    68    8730405     8343.
## # ... with 1,694 more rows
```

2. Order by year, in descending order.


```r
arrange(gapminder, desc(year))
```

```
## # A tibble: 1,704 x 6
##    country     continent  year lifeExp       pop gdpPercap
##    <fct>       <fct>     <int>   <dbl>     <int>     <dbl>
##  1 Afghanistan Asia       2007    43.8  31889923      975.
##  2 Albania     Europe     2007    76.4   3600523     5937.
##  3 Algeria     Africa     2007    72.3  33333216     6223.
##  4 Angola      Africa     2007    42.7  12420476     4797.
##  5 Argentina   Americas   2007    75.3  40301927    12779.
##  6 Australia   Oceania    2007    81.2  20434176    34435.
##  7 Austria     Europe     2007    79.8   8199783    36126.
##  8 Bahrain     Asia       2007    75.6    708573    29796.
##  9 Bangladesh  Asia       2007    64.1 150448339     1391.
## 10 Belgium     Europe     2007    79.4  10392226    33693.
## # ... with 1,694 more rows
```

3. Order by year, then by life expectancy.


```r
arrange(gapminder, year, lifeExp) #for desc() wrap each column individually
```

```
## # A tibble: 1,704 x 6
##    country       continent  year lifeExp     pop gdpPercap
##    <fct>         <fct>     <int>   <dbl>   <int>     <dbl>
##  1 Afghanistan   Asia       1952    28.8 8425333      779.
##  2 Gambia        Africa     1952    30    284320      485.
##  3 Angola        Africa     1952    30.0 4232095     3521.
##  4 Sierra Leone  Africa     1952    30.3 2143249      880.
##  5 Mozambique    Africa     1952    31.3 6446316      469.
##  6 Burkina Faso  Africa     1952    32.0 4469979      543.
##  7 Guinea-Bissau Africa     1952    32.5  580653      300.
##  8 Yemen, Rep.   Asia       1952    32.5 4963829      782.
##  9 Somalia       Africa     1952    33.0 2526994     1136.
## 10 Guinea        Africa     1952    33.6 2664249      510.
## # ... with 1,694 more rows
```
…
Now using with pipes:


```r
# alter the below to include 2 "pipes"
gapminder %>% 
  select(year, lifeExp, country) %>%
  arrange(year, lifeExp) #note arrange() does not re-order columns
```

```
## # A tibble: 1,704 x 3
##     year lifeExp country      
##    <int>   <dbl> <fct>        
##  1  1952    28.8 Afghanistan  
##  2  1952    30   Gambia       
##  3  1952    30.0 Angola       
##  4  1952    30.3 Sierra Leone 
##  5  1952    31.3 Mozambique   
##  6  1952    32.0 Burkina Faso 
##  7  1952    32.5 Guinea-Bissau
##  8  1952    32.5 Yemen, Rep.  
##  9  1952    33.0 Somalia      
## 10  1952    33.6 Guinea       
## # ... with 1,694 more rows
```
…
Return to guide at section 6.7.

## `filter()` (10 min)

1. Only take data with population greater than 100 million.


```r
gapminder %>%
  filter(pop > 100000000)
```

```
## # A tibble: 77 x 6
##    country    continent  year lifeExp       pop gdpPercap
##    <fct>      <fct>     <int>   <dbl>     <int>     <dbl>
##  1 Bangladesh Asia       1987    52.8 103764241      752.
##  2 Bangladesh Asia       1992    56.0 113704579      838.
##  3 Bangladesh Asia       1997    59.4 123315288      973.
##  4 Bangladesh Asia       2002    62.0 135656790     1136.
##  5 Bangladesh Asia       2007    64.1 150448339     1391.
##  6 Brazil     Americas   1972    59.5 100840058     4986.
##  7 Brazil     Americas   1977    61.5 114313951     6660.
##  8 Brazil     Americas   1982    63.3 128962939     7031.
##  9 Brazil     Americas   1987    65.2 142938076     7807.
## 10 Brazil     Americas   1992    67.1 155975974     6950.
## # ... with 67 more rows
```

2. Your turn: of those rows filtered from step 1., only take data from Asia.


```r
gapminder %>%
  filter(pop > 100000000) %>% 
  filter(continent=='Asia')
```

```
## # A tibble: 52 x 6
##    country    continent  year lifeExp       pop gdpPercap
##    <fct>      <fct>     <int>   <dbl>     <int>     <dbl>
##  1 Bangladesh Asia       1987    52.8 103764241      752.
##  2 Bangladesh Asia       1992    56.0 113704579      838.
##  3 Bangladesh Asia       1997    59.4 123315288      973.
##  4 Bangladesh Asia       2002    62.0 135656790     1136.
##  5 Bangladesh Asia       2007    64.1 150448339     1391.
##  6 China      Asia       1952    44   556263527      400.
##  7 China      Asia       1957    50.5 637408000      576.
##  8 China      Asia       1962    44.5 665770000      488.
##  9 China      Asia       1967    58.4 754550000      613.
## 10 China      Asia       1972    63.1 862030000      677.
## # ... with 42 more rows
```
…
## `mutate()` (10 min)

Let's get: 

- GDP by multiplying GPD per capita with population, and
- GDP in billions, named (`gdpBill`), rounded to two decimals.


```r
gapminder %>%
  mutate(gdpBill=gdpPercap*pop/1000000000)
```

```
## # A tibble: 1,704 x 7
##    country     continent  year lifeExp      pop gdpPercap gdpBill
##    <fct>       <fct>     <int>   <dbl>    <int>     <dbl>   <dbl>
##  1 Afghanistan Asia       1952    28.8  8425333      779.    6.57
##  2 Afghanistan Asia       1957    30.3  9240934      821.    7.59
##  3 Afghanistan Asia       1962    32.0 10267083      853.    8.76
##  4 Afghanistan Asia       1967    34.0 11537966      836.    9.65
##  5 Afghanistan Asia       1972    36.1 13079460      740.    9.68
##  6 Afghanistan Asia       1977    38.4 14880372      786.   11.7 
##  7 Afghanistan Asia       1982    39.9 12881816      978.   12.6 
##  8 Afghanistan Asia       1987    40.8 13867957      852.   11.8 
##  9 Afghanistan Asia       1992    41.7 16317921      649.   10.6 
## 10 Afghanistan Asia       1997    41.8 22227415      635.   14.1 
## # ... with 1,694 more rows
```
…
Notice the backwards compatibility! No need for loops!

Try the same thing, but with `transmute` (drops all other variables). 


```r
gapminder %>%
  transmute(gdpBill=gdpPercap*pop/1000000000)
```

```
## # A tibble: 1,704 x 1
##    gdpBill
##      <dbl>
##  1    6.57
##  2    7.59
##  3    8.76
##  4    9.65
##  5    9.68
##  6   11.7 
##  7   12.6 
##  8   11.8 
##  9   10.6 
## 10   14.1 
## # ... with 1,694 more rows
```

The `if_else` function is useful for changing certain elements in a data frame.

Example: Suppose Canada's 1952 life expectancy was mistakenly entered as 68.8 in the data frame, but is actually 70. Fix it using `if_else` and `mutate`. 


```r
gapminder %>%
  mutate(lifeExp=if_else(country=='Canada' & year==1952, 70, lifeExp))
```

```
## # A tibble: 1,704 x 6
##    country     continent  year lifeExp      pop gdpPercap
##    <fct>       <fct>     <int>   <dbl>    <int>     <dbl>
##  1 Afghanistan Asia       1952    28.8  8425333      779.
##  2 Afghanistan Asia       1957    30.3  9240934      821.
##  3 Afghanistan Asia       1962    32.0 10267083      853.
##  4 Afghanistan Asia       1967    34.0 11537966      836.
##  5 Afghanistan Asia       1972    36.1 13079460      740.
##  6 Afghanistan Asia       1977    38.4 14880372      786.
##  7 Afghanistan Asia       1982    39.9 12881816      978.
##  8 Afghanistan Asia       1987    40.8 13867957      852.
##  9 Afghanistan Asia       1992    41.7 16317921      649.
## 10 Afghanistan Asia       1997    41.8 22227415      635.
## # ... with 1,694 more rows
```

Your turn: Make a new column called `cc` that pastes the country name followed by the continent, separated by a comma. (Hint: use the `paste` function with the `sep=", "` argument).


```r
gapminder %>% 
  mutate(cc=paste(country, continent, sep=', '))
```

```
## # A tibble: 1,704 x 7
##    country     continent  year lifeExp      pop gdpPercap cc               
##    <fct>       <fct>     <int>   <dbl>    <int>     <dbl> <chr>            
##  1 Afghanistan Asia       1952    28.8  8425333      779. Afghanistan, Asia
##  2 Afghanistan Asia       1957    30.3  9240934      821. Afghanistan, Asia
##  3 Afghanistan Asia       1962    32.0 10267083      853. Afghanistan, Asia
##  4 Afghanistan Asia       1967    34.0 11537966      836. Afghanistan, Asia
##  5 Afghanistan Asia       1972    36.1 13079460      740. Afghanistan, Asia
##  6 Afghanistan Asia       1977    38.4 14880372      786. Afghanistan, Asia
##  7 Afghanistan Asia       1982    39.9 12881816      978. Afghanistan, Asia
##  8 Afghanistan Asia       1987    40.8 13867957      852. Afghanistan, Asia
##  9 Afghanistan Asia       1992    41.7 16317921      649. Afghanistan, Asia
## 10 Afghanistan Asia       1997    41.8 22227415      635. Afghanistan, Asia
## # ... with 1,694 more rows
```
…
# Bonus Exercises

If there's time remaining, we'll practice with these three exercises. I'll give you 1 minute for each, then we'll go over the answer.

1. Take all countries in Europe that have a GDP per capita greater than 10000, and select all variables except `gdpPercap`. (Hint: use `-`).

```r
gapminder %>% 
  filter(gdpPercap>10000) %>% 
  select(-gdpPercap)
```

```
## # A tibble: 392 x 5
##    country   continent  year lifeExp      pop
##    <fct>     <fct>     <int>   <dbl>    <int>
##  1 Argentina Americas   1977    68.5 26983828
##  2 Argentina Americas   1997    73.3 36203463
##  3 Argentina Americas   2007    75.3 40301927
##  4 Australia Oceania    1952    69.1  8691212
##  5 Australia Oceania    1957    70.3  9712569
##  6 Australia Oceania    1962    70.9 10794968
##  7 Australia Oceania    1967    71.1 11872264
##  8 Australia Oceania    1972    71.9 13177000
##  9 Australia Oceania    1977    73.5 14074100
## 10 Australia Oceania    1982    74.7 15184200
## # ... with 382 more rows
```
…
    
4. Convert the population to a number in billions.

```r
gapminder %>% 
  mutate(pop=pop/1000000000)
```

```
## # A tibble: 1,704 x 6
##    country     continent  year lifeExp     pop gdpPercap
##    <fct>       <fct>     <int>   <dbl>   <dbl>     <dbl>
##  1 Afghanistan Asia       1952    28.8 0.00843      779.
##  2 Afghanistan Asia       1957    30.3 0.00924      821.
##  3 Afghanistan Asia       1962    32.0 0.0103       853.
##  4 Afghanistan Asia       1967    34.0 0.0115       836.
##  5 Afghanistan Asia       1972    36.1 0.0131       740.
##  6 Afghanistan Asia       1977    38.4 0.0149       786.
##  7 Afghanistan Asia       1982    39.9 0.0129       978.
##  8 Afghanistan Asia       1987    40.8 0.0139       852.
##  9 Afghanistan Asia       1992    41.7 0.0163       649.
## 10 Afghanistan Asia       1997    41.8 0.0222       635.
## # ... with 1,694 more rows
```
…
